<?xml version="1.0" encoding="UTF-8"?>
<svg width="351mm" height="54.261mm" version="1.1" viewBox="0 0 351 54.261" xmlns="http://www.w3.org/2000/svg" xmlns:cc="http://creativecommons.org/ns#" xmlns:dc="http://purl.org/dc/elements/1.1/" xmlns:rdf="http://www.w3.org/1999/02/22-rdf-syntax-ns#">
 <metadata>
  <rdf:RDF>
   <cc:Work rdf:about="">
    <dc:format>image/svg+xml</dc:format>
    <dc:type rdf:resource="http://purl.org/dc/dcmitype/StillImage"/>
    <dc:title/>
   </cc:Work>
  </rdf:RDF>
 </metadata>
 <g transform="translate(160.56 -85.351)">
  <path d="m-160.56 85.351h351v54.261h-351z" color="#000000" color-rendering="auto" dominant-baseline="auto" fill="none" image-rendering="auto" shape-rendering="auto" solid-color="#000000" stop-color="#000000" style="font-feature-settings:normal;font-variant-alternates:normal;font-variant-caps:normal;font-variant-east-asian:normal;font-variant-ligatures:normal;font-variant-numeric:normal;font-variant-position:normal;font-variation-settings:normal;inline-size:0;isolation:auto;mix-blend-mode:normal;shape-margin:0;shape-padding:0;text-decoration-color:#000000;text-decoration-line:none;text-decoration-style:solid;text-indent:0;text-orientation:mixed;text-transform:none;white-space:normal"/>
  <g transform="translate(697.41 142.39)" fill="#008080" stroke="#008080" stroke-width="2.3812" aria-label="ROCKSOLID">
   <g fill="#008080" shape-rendering="auto" stroke="none">
    <path d="m-821.22-21.379h-0.2032l-0.6096 2.1336h-0.7112l0.6096 2.0828 1.27 5.2324h-0.254l-0.6096 2.1336h-13.919l-0.3556-0.8128-0.2032 0.8128h-14.122v-37.744l0.508-1.7272v-0.7112h28.6zm-1.3208-27.28h-25.959v11.786h14.173v7.0612h-2.3876v-4.7244h-11.786v21.285h11.786v-9.4488l2.3876 9.4488h11.786l-2.3368-9.4488h2.3368z" color="#000000" color-rendering="auto" dominant-baseline="auto" image-rendering="auto" solid-color="#000000" stop-color="#000000" style="font-feature-settings:normal;font-variant-alternates:normal;font-variant-caps:normal;font-variant-east-asian:normal;font-variant-ligatures:normal;font-variant-numeric:normal;font-variant-position:normal;font-variation-settings:normal;inline-size:0;isolation:auto;mix-blend-mode:normal;shape-margin:0;shape-padding:0;text-decoration-color:#000000;text-decoration-line:none;text-decoration-style:solid;text-indent:0;text-orientation:mixed;text-transform:none;white-space:normal"/>
    <path d="m-851.01-51.17v1.7305l-0.50781 1.7266v39.107h30.689l0.60938-2.1328h0.86914l-1.6328-6.7324-0.16992-0.58398h0.0176l0.61133-2.1328h0.49414v-30.982zm3.7012 3.7031h23.578v23.576h-2.668l2.3379 9.4492h-9.3379l-2.1602-8.5488-2.3457 0.29102v8.2578h-9.4043v-18.904h9.4043v4.7246h4.7695v-9.4414h-14.174zm11.785 11.785h8e-3v4.6797h-8e-3zm12.168 14.172h0.73242l-0.30664 1.0742h-0.16016zm-12.168 8.375 0.27148 1.0742h12.934l-0.30664 1.0742h-12.242l-0.65625-1.5zm-13.613 1.0742h12.27l-0.26758 1.0742h-12.002z" color="#000000" color-rendering="auto" dominant-baseline="auto" image-rendering="auto" solid-color="#000000" stop-color="#000000" style="font-feature-settings:normal;font-variant-alternates:normal;font-variant-caps:normal;font-variant-east-asian:normal;font-variant-ligatures:normal;font-variant-numeric:normal;font-variant-position:normal;font-variation-settings:normal;inline-size:0;isolation:auto;mix-blend-mode:normal;shape-margin:0;shape-padding:0;text-decoration-color:#000000;text-decoration-line:none;text-decoration-style:solid;text-indent:0;text-orientation:mixed;text-transform:none;white-space:normal"/>
    <path d="m-792.51-11.93h-0.2032l-0.6096 2.1336h-28.296v-37.744l0.508-1.7272v-0.7112h28.6zm-1.3208-36.728h-25.959v35.408h25.959zm-11.786 23.622h-2.3368v-11.836h2.3368z" color="#000000" color-rendering="auto" dominant-baseline="auto" image-rendering="auto" solid-color="#000000" stop-color="#000000" style="font-feature-settings:normal;font-variant-alternates:normal;font-variant-caps:normal;font-variant-east-asian:normal;font-variant-ligatures:normal;font-variant-numeric:normal;font-variant-position:normal;font-variation-settings:normal;inline-size:0;isolation:auto;mix-blend-mode:normal;shape-margin:0;shape-padding:0;text-decoration-color:#000000;text-decoration-line:none;text-decoration-style:solid;text-indent:0;text-orientation:mixed;text-transform:none;white-space:normal"/>
    <path d="m-822.3-51.17v1.7305l-0.50781 1.7266v39.107h30.385l0.60937-2.1328h0.49609v-40.432zm3.7031 3.7031h23.576v33.025h-23.576zm9.4551 9.4043v14.217h4.7168v-14.217zm-11.285 26.002h26.514l-0.30664 1.0742h-26.207z" color="#000000" color-rendering="auto" dominant-baseline="auto" image-rendering="auto" solid-color="#000000" stop-color="#000000" style="font-feature-settings:normal;font-variant-alternates:normal;font-variant-caps:normal;font-variant-east-asian:normal;font-variant-ligatures:normal;font-variant-numeric:normal;font-variant-position:normal;font-variation-settings:normal;inline-size:0;isolation:auto;mix-blend-mode:normal;shape-margin:0;shape-padding:0;text-decoration-color:#000000;text-decoration-line:none;text-decoration-style:solid;text-indent:0;text-orientation:mixed;text-transform:none;white-space:normal"/>
    <path d="m-763.81-11.93h-0.2032l-0.6096 2.1336h-28.296v-37.744l0.508-1.7272v-0.7112h28.6v14.478h-0.2032l-0.6096 2.1336h-13.36v7.0104h14.173zm-1.3208-13.106h-14.173v-11.786h14.173v-11.836h-25.959v35.408h25.959z" color="#000000" color-rendering="auto" dominant-baseline="auto" image-rendering="auto" solid-color="#000000" stop-color="#000000" style="font-feature-settings:normal;font-variant-alternates:normal;font-variant-caps:normal;font-variant-east-asian:normal;font-variant-ligatures:normal;font-variant-numeric:normal;font-variant-position:normal;font-variation-settings:normal;inline-size:0;isolation:auto;mix-blend-mode:normal;shape-margin:0;shape-padding:0;text-decoration-color:#000000;text-decoration-line:none;text-decoration-style:solid;text-indent:0;text-orientation:mixed;text-transform:none;white-space:normal"/>
    <path d="m-793.6-51.17v1.7305l-0.50977 1.7266v39.107h30.385l0.60937-2.1328h0.4961v-16.809h-14.172v-4.6309h13.066l0.60937-2.1328h0.4961v-16.859zm3.7012 3.7031h23.578v9.4551h-14.174v14.166h14.174v9.4043h-23.578zm11.785 11.836h12.9l-0.30664 1.0723h-12.594zm-13.613 23.57h26.514l-0.30664 1.0742h-26.207z" color="#000000" color-rendering="auto" dominant-baseline="auto" image-rendering="auto" solid-color="#000000" stop-color="#000000" style="font-feature-settings:normal;font-variant-alternates:normal;font-variant-caps:normal;font-variant-east-asian:normal;font-variant-ligatures:normal;font-variant-numeric:normal;font-variant-position:normal;font-variation-settings:normal;inline-size:0;isolation:auto;mix-blend-mode:normal;shape-margin:0;shape-padding:0;text-decoration-color:#000000;text-decoration-line:none;text-decoration-style:solid;text-indent:0;text-orientation:mixed;text-transform:none;white-space:normal"/>
    <path d="m-764.22-47.541 0.508-1.7272v-0.7112h14.427v4.064l1.9304-4.064h15.951l-0.5588 1.2192-0.3556 1.2192-7.8232 16.866 8.7376 18.745h-0.3048l-0.6096 2.1336h-15.596l-1.3716-2.9972v0.8636h-0.2032l-0.6096 2.1336h-14.122zm22.504 16.561 8.2296-17.678h-13.005l-4.1148 8.7884v-8.7884h-11.786v35.408h11.786v-8.8392l4.1148 8.8392h13.005z" color="#000000" color-rendering="auto" dominant-baseline="auto" image-rendering="auto" solid-color="#000000" stop-color="#000000" style="font-feature-settings:normal;font-variant-alternates:normal;font-variant-caps:normal;font-variant-east-asian:normal;font-variant-ligatures:normal;font-variant-numeric:normal;font-variant-position:normal;font-variation-settings:normal;inline-size:0;isolation:auto;mix-blend-mode:normal;shape-margin:0;shape-padding:0;text-decoration-color:#000000;text-decoration-line:none;text-decoration-style:solid;text-indent:0;text-orientation:mixed;text-transform:none;white-space:normal"/>
    <path d="m-764.9-51.17v1.7305l-0.50781 1.7266v39.107h16.211l0.20118-0.70117 0.32031 0.70117h17.258l0.60938-2.1328h1.2754l-9.293-19.938 7.6289-16.445 0.35547-1.2227 1.2969-2.8262h-18.561zm3.7012 3.7031h9.4043v7.5977l2.2695 0.50391 3.7949-8.1016h10.379l-7.6758 16.486 0.23437 0.50195 7.4434 16.037h-10.381l-3.793-8.1504-2.2715 0.50195v7.6484h-9.4043zm11.787 1.791 0.19141 0.04297-0.19141 0.41016zm0 28.967 2.1641 4.6484h14.342l-0.30664 1.0742h-13.934l-1.0527-2.3027-1.1719 0.25586 0.0879-0.08789h-0.12891zm-13.615 4.6484h12.34l-0.30664 1.0742h-12.033z" color="#000000" color-rendering="auto" dominant-baseline="auto" image-rendering="auto" solid-color="#000000" stop-color="#000000" style="font-feature-settings:normal;font-variant-alternates:normal;font-variant-caps:normal;font-variant-east-asian:normal;font-variant-ligatures:normal;font-variant-numeric:normal;font-variant-position:normal;font-variation-settings:normal;inline-size:0;isolation:auto;mix-blend-mode:normal;shape-margin:0;shape-padding:0;text-decoration-color:#000000;text-decoration-line:none;text-decoration-style:solid;text-indent:0;text-orientation:mixed;text-transform:none;white-space:normal"/>
    <path d="m-704.27-11.93-0.6096 2.1336h-28.296v-14.122l0.0508-0.0508h-0.0508v-23.571l0.508-1.7272v-0.7112h28.6v38.049zm-1.1176-1.3208v-21.234h-14.173v-2.3368h14.173v-11.836h-25.959v21.234h14.122v2.3876h-14.122v11.786z" color="#000000" color-rendering="auto" dominant-baseline="auto" image-rendering="auto" solid-color="#000000" stop-color="#000000" style="font-feature-settings:normal;font-variant-alternates:normal;font-variant-caps:normal;font-variant-east-asian:normal;font-variant-ligatures:normal;font-variant-numeric:normal;font-variant-position:normal;font-variation-settings:normal;inline-size:0;isolation:auto;mix-blend-mode:normal;shape-margin:0;shape-padding:0;text-decoration-color:#000000;text-decoration-line:none;text-decoration-style:solid;text-indent:0;text-orientation:mixed;text-transform:none;white-space:normal"/>
    <path d="m-733.86-51.17v1.7305l-0.50781 1.7266v39.107h30.383l0.60938-2.1328h0.49609v-40.432zm3.7012 3.7031h23.578v9.4551h-14.174v4.7168h14.174v18.854h-23.578v-9.4043h14.123v-4.7695h-14.123zm-1.8281 21.234h13.57v0.0059h-13.57zm0 14.172h26.514l-0.30664 1.0742h-26.207z" color="#000000" color-rendering="auto" dominant-baseline="auto" image-rendering="auto" solid-color="#000000" stop-color="#000000" style="font-feature-settings:normal;font-variant-alternates:normal;font-variant-caps:normal;font-variant-east-asian:normal;font-variant-ligatures:normal;font-variant-numeric:normal;font-variant-position:normal;font-variation-settings:normal;inline-size:0;isolation:auto;mix-blend-mode:normal;shape-margin:0;shape-padding:0;text-decoration-color:#000000;text-decoration-line:none;text-decoration-style:solid;text-indent:0;text-orientation:mixed;text-transform:none;white-space:normal"/>
    <path d="m-675.37-11.93h-0.2032l-0.6096 2.1336h-28.296v-37.744l0.508-1.7272v-0.7112h28.6zm-1.3208-36.728h-25.959v35.408h25.959zm-11.786 23.622h-2.3368v-11.836h2.3368z" color="#000000" color-rendering="auto" dominant-baseline="auto" image-rendering="auto" solid-color="#000000" stop-color="#000000" style="font-feature-settings:normal;font-variant-alternates:normal;font-variant-caps:normal;font-variant-east-asian:normal;font-variant-ligatures:normal;font-variant-numeric:normal;font-variant-position:normal;font-variation-settings:normal;inline-size:0;isolation:auto;mix-blend-mode:normal;shape-margin:0;shape-padding:0;text-decoration-color:#000000;text-decoration-line:none;text-decoration-style:solid;text-indent:0;text-orientation:mixed;text-transform:none;white-space:normal"/>
    <path d="m-705.16-51.17v1.7305l-0.50781 1.7266v39.107h30.385l0.60937-2.1328h0.4961v-40.432zm3.7031 3.7031h23.576v33.025h-23.576zm9.4551 9.4043v14.217h4.7168v-14.217zm-11.285 26.002h26.514l-0.30664 1.0742h-26.207z" color="#000000" color-rendering="auto" dominant-baseline="auto" image-rendering="auto" solid-color="#000000" stop-color="#000000" style="font-feature-settings:normal;font-variant-alternates:normal;font-variant-caps:normal;font-variant-east-asian:normal;font-variant-ligatures:normal;font-variant-numeric:normal;font-variant-position:normal;font-variation-settings:normal;inline-size:0;isolation:auto;mix-blend-mode:normal;shape-margin:0;shape-padding:0;text-decoration-color:#000000;text-decoration-line:none;text-decoration-style:solid;text-indent:0;text-orientation:mixed;text-transform:none;white-space:normal"/>
    <path d="m-649-11.93h-0.2032l-0.6096 2.1336h-25.959v-37.744l0.508-1.7272v-0.7112h14.427v23.622h11.836zm-1.3208-13.106h-11.836v-23.622h-11.786v35.408h23.622z" color="#000000" color-rendering="auto" dominant-baseline="auto" image-rendering="auto" solid-color="#000000" stop-color="#000000" style="font-feature-settings:normal;font-variant-alternates:normal;font-variant-caps:normal;font-variant-east-asian:normal;font-variant-ligatures:normal;font-variant-numeric:normal;font-variant-position:normal;font-variation-settings:normal;inline-size:0;isolation:auto;mix-blend-mode:normal;shape-margin:0;shape-padding:0;text-decoration-color:#000000;text-decoration-line:none;text-decoration-style:solid;text-indent:0;text-orientation:mixed;text-transform:none;white-space:normal"/>
    <path d="m-676.46-51.17v1.7305l-0.50977 1.7266v39.107h28.049l0.60938-2.1328h0.49609v-16.809h-11.838v-23.623zm3.7012 3.7031h9.4043v23.621h11.836v9.4043h-21.24zm-1.8281 35.406h24.176l-0.30664 1.0742h-23.869z" color="#000000" color-rendering="auto" dominant-baseline="auto" image-rendering="auto" solid-color="#000000" stop-color="#000000" style="font-feature-settings:normal;font-variant-alternates:normal;font-variant-caps:normal;font-variant-east-asian:normal;font-variant-ligatures:normal;font-variant-numeric:normal;font-variant-position:normal;font-variation-settings:normal;inline-size:0;isolation:auto;mix-blend-mode:normal;shape-margin:0;shape-padding:0;text-decoration-color:#000000;text-decoration-line:none;text-decoration-style:solid;text-indent:0;text-orientation:mixed;text-transform:none;white-space:normal"/>
    <path d="m-634.47-11.93h-0.2032l-0.6096 2.1336h-14.173v-37.795l0.508-1.7272v-0.7112h14.478zm-1.3208-36.779h-11.836v35.458h11.836z" color="#000000" color-rendering="auto" dominant-baseline="auto" image-rendering="auto" solid-color="#000000" stop-color="#000000" style="font-feature-settings:normal;font-variant-alternates:normal;font-variant-caps:normal;font-variant-east-asian:normal;font-variant-ligatures:normal;font-variant-numeric:normal;font-variant-position:normal;font-variation-settings:normal;inline-size:0;isolation:auto;mix-blend-mode:normal;shape-margin:0;shape-padding:0;text-decoration-color:#000000;text-decoration-line:none;text-decoration-style:solid;text-indent:0;text-orientation:mixed;text-transform:none;white-space:normal"/>
    <path d="m-650.14-51.221v1.7305l-0.50976 1.7266v39.158h16.264l0.60937-2.1328h0.49414v-40.482zm3.7012 3.7031h9.4551v33.076h-9.4551zm-1.8281 35.457h12.391l-0.30664 1.0742h-12.084z" color="#000000" color-rendering="auto" dominant-baseline="auto" image-rendering="auto" solid-color="#000000" stop-color="#000000" style="font-feature-settings:normal;font-variant-alternates:normal;font-variant-caps:normal;font-variant-east-asian:normal;font-variant-ligatures:normal;font-variant-numeric:normal;font-variant-position:normal;font-variation-settings:normal;inline-size:0;isolation:auto;mix-blend-mode:normal;shape-margin:0;shape-padding:0;text-decoration-color:#000000;text-decoration-line:none;text-decoration-style:solid;text-indent:0;text-orientation:mixed;text-transform:none;white-space:normal"/>
    <path d="m-634.88-47.541 0.508-1.7272v-0.7112h28.6v38.049h-0.2032l-0.6096 2.1336h-28.296zm16.002 22.504h-2.3876v-9.4488h-11.786v21.234h25.959v-35.408h-25.959v11.836h14.173z" color="#000000" color-rendering="auto" dominant-baseline="auto" image-rendering="auto" solid-color="#000000" stop-color="#000000" style="font-feature-settings:normal;font-variant-alternates:normal;font-variant-caps:normal;font-variant-east-asian:normal;font-variant-ligatures:normal;font-variant-numeric:normal;font-variant-position:normal;font-variation-settings:normal;inline-size:0;isolation:auto;mix-blend-mode:normal;shape-margin:0;shape-padding:0;text-decoration-color:#000000;text-decoration-line:none;text-decoration-style:solid;text-indent:0;text-orientation:mixed;text-transform:none;white-space:normal"/>
    <path d="m-635.56-51.17v1.7305l-0.50782 1.7266v39.107h30.385l0.60938-2.1328h0.49609v-40.432zm3.7031 3.7031h23.576v33.025h-23.576v-18.854h9.4043v9.4492h4.7676v-14.166h-14.172zm11.785 11.836h6e-3v9.4043h-6e-3zm-13.615 23.57h26.514l-0.30665 1.0742h-26.207z" color="#000000" color-rendering="auto" dominant-baseline="auto" image-rendering="auto" solid-color="#000000" stop-color="#000000" style="font-feature-settings:normal;font-variant-alternates:normal;font-variant-caps:normal;font-variant-east-asian:normal;font-variant-ligatures:normal;font-variant-numeric:normal;font-variant-position:normal;font-variation-settings:normal;inline-size:0;isolation:auto;mix-blend-mode:normal;shape-margin:0;shape-padding:0;text-decoration-color:#000000;text-decoration-line:none;text-decoration-style:solid;text-indent:0;text-orientation:mixed;text-transform:none;white-space:normal"/>
   </g>
  </g>
  <g transform="translate(697.41 142.39)" fill="#ff0" stroke="#ff0" stroke-width="1.7859" aria-label="light">
   <g fill="#ff0" shape-rendering="auto" stroke="none">
    <path d="m-570.48-19.797h-0.1143l-0.3429 1.2002h-14.602v-21.231l0.28575-0.97155v-0.40005h8.1153v13.287h6.658zm-0.74295-7.3724h-6.658v-13.287h-6.6294v19.917h13.287z" color="#000000" color-rendering="auto" dominant-baseline="auto" image-rendering="auto" solid-color="#000000" stop-color="#000000" style="font-feature-settings:normal;font-variant-alternates:normal;font-variant-caps:normal;font-variant-east-asian:normal;font-variant-ligatures:normal;font-variant-numeric:normal;font-variant-position:normal;font-variation-settings:normal;inline-size:0;isolation:auto;mix-blend-mode:normal;shape-margin:0;shape-padding:0;text-decoration-color:#000000;text-decoration-line:none;text-decoration-style:solid;text-indent:0;text-orientation:mixed;text-transform:none;white-space:normal"/>
    <path d="m-586.14-42.094v1.166l-0.28516 0.9707v22.252h16.168l0.34375-1.1992h0.33399v-9.9023h-6.6582v-13.287zm2.5293 2.5293h4.8438v13.287h6.6582v4.8438h-11.502zm-1.0293 19.916h13.08l-0.0449 0.1582h-13.035z" color="#000000" color-rendering="auto" dominant-baseline="auto" image-rendering="auto" solid-color="#000000" stop-color="#000000" style="font-feature-settings:normal;font-variant-alternates:normal;font-variant-caps:normal;font-variant-east-asian:normal;font-variant-ligatures:normal;font-variant-numeric:normal;font-variant-position:normal;font-variation-settings:normal;inline-size:0;isolation:auto;mix-blend-mode:normal;shape-margin:0;shape-padding:0;text-decoration-color:#000000;text-decoration-line:none;text-decoration-style:solid;text-indent:0;text-orientation:mixed;text-transform:none;white-space:normal"/>
    <path d="m-562.31-19.797h-0.1143l-0.3429 1.2002h-7.9724v-21.26l0.28575-0.97155v-0.40005h8.1439zm-0.74295-20.688h-6.658v19.945h6.658z" color="#000000" color-rendering="auto" dominant-baseline="auto" image-rendering="auto" solid-color="#000000" stop-color="#000000" style="font-feature-settings:normal;font-variant-alternates:normal;font-variant-caps:normal;font-variant-east-asian:normal;font-variant-ligatures:normal;font-variant-numeric:normal;font-variant-position:normal;font-variation-settings:normal;inline-size:0;isolation:auto;mix-blend-mode:normal;shape-margin:0;shape-padding:0;text-decoration-color:#000000;text-decoration-line:none;text-decoration-style:solid;text-indent:0;text-orientation:mixed;text-transform:none;white-space:normal"/>
    <path d="m-571.34-42.121v1.1641l-0.28515 0.9707v22.281h9.5371l0.34375-1.1992h0.33398v-23.217zm2.5293 2.5273h4.8711v18.16h-4.8711zm-1.0293 19.945h6.4512l-0.0449 0.1582h-6.4062z" color="#000000" color-rendering="auto" dominant-baseline="auto" image-rendering="auto" solid-color="#000000" stop-color="#000000" style="font-feature-settings:normal;font-variant-alternates:normal;font-variant-caps:normal;font-variant-east-asian:normal;font-variant-ligatures:normal;font-variant-numeric:normal;font-variant-position:normal;font-variation-settings:normal;inline-size:0;isolation:auto;mix-blend-mode:normal;shape-margin:0;shape-padding:0;text-decoration-color:#000000;text-decoration-line:none;text-decoration-style:solid;text-indent:0;text-orientation:mixed;text-transform:none;white-space:normal"/>
    <path d="m-546.27-19.797-0.3429 1.2002h-15.916v-21.231l0.28575-0.97155v-0.40005h16.088v21.403zm-0.62865-0.74295v-11.944h-6.6294v4.0005h1.3144v1.3144h-2.6575v-6.6294h7.9724v-6.658h-14.602v19.917z" color="#000000" color-rendering="auto" dominant-baseline="auto" image-rendering="auto" solid-color="#000000" stop-color="#000000" style="font-feature-settings:normal;font-variant-alternates:normal;font-variant-caps:normal;font-variant-east-asian:normal;font-variant-ligatures:normal;font-variant-numeric:normal;font-variant-position:normal;font-variation-settings:normal;inline-size:0;isolation:auto;mix-blend-mode:normal;shape-margin:0;shape-padding:0;text-decoration-color:#000000;text-decoration-line:none;text-decoration-style:solid;text-indent:0;text-orientation:mixed;text-transform:none;white-space:normal"/>
    <path d="m-563.14-42.094v1.166l-0.28711 0.9707v22.252h17.484l0.3418-1.1992h0.33398v-23.189zm2.5293 2.5293h12.814v4.873h-7.9726v8.4141h4.4434v-3.0996h-1.3144v-2.2148h4.8437v10.158h-12.814zm-1.0293 19.916h14.395l-0.0449 0.1582h-14.35z" color="#000000" color-rendering="auto" dominant-baseline="auto" image-rendering="auto" solid-color="#000000" stop-color="#000000" style="font-feature-settings:normal;font-variant-alternates:normal;font-variant-caps:normal;font-variant-east-asian:normal;font-variant-ligatures:normal;font-variant-numeric:normal;font-variant-position:normal;font-variation-settings:normal;inline-size:0;isolation:auto;mix-blend-mode:normal;shape-margin:0;shape-padding:0;text-decoration-color:#000000;text-decoration-line:none;text-decoration-style:solid;text-indent:0;text-orientation:mixed;text-transform:none;white-space:normal"/>
    <path d="m-546.39-39.829 0.28575-0.97155v-0.40005h16.088v21.403h-0.1143l-0.3429 1.2002h-15.916zm8.9726 7.3438h-1.3144v-7.9724h-6.6294v19.917h6.6294v-7.9438h1.3144v7.9438h6.658v-19.917h-6.658z" color="#000000" color-rendering="auto" dominant-baseline="auto" image-rendering="auto" solid-color="#000000" stop-color="#000000" style="font-feature-settings:normal;font-variant-alternates:normal;font-variant-caps:normal;font-variant-east-asian:normal;font-variant-ligatures:normal;font-variant-numeric:normal;font-variant-position:normal;font-variation-settings:normal;inline-size:0;isolation:auto;mix-blend-mode:normal;shape-margin:0;shape-padding:0;text-decoration-color:#000000;text-decoration-line:none;text-decoration-style:solid;text-indent:0;text-orientation:mixed;text-transform:none;white-space:normal"/>
    <path d="m-547-42.094v1.166l-0.28516 0.9707v22.252h17.482l0.3418-1.1992h0.33398v-23.189zm2.5293 2.5293h4.8438v7.9727h3.0996v-7.9727h4.8711v18.131h-4.8711v-7.9434h-3.0996v7.9434h-4.8438zm-1.0293 19.916h14.395l-0.0449 0.1582h-14.35z" color="#000000" color-rendering="auto" dominant-baseline="auto" image-rendering="auto" solid-color="#000000" stop-color="#000000" style="font-feature-settings:normal;font-variant-alternates:normal;font-variant-caps:normal;font-variant-east-asian:normal;font-variant-ligatures:normal;font-variant-numeric:normal;font-variant-position:normal;font-variation-settings:normal;inline-size:0;isolation:auto;mix-blend-mode:normal;shape-margin:0;shape-padding:0;text-decoration-color:#000000;text-decoration-line:none;text-decoration-style:solid;text-indent:0;text-orientation:mixed;text-transform:none;white-space:normal"/>
    <path d="m-514.3-33.085h-0.1143l-0.3429 1.2002h-3.5147v12.087h-0.1143l-0.3429 1.2002h-7.9724v-13.287h-3.9719v-7.9438l0.28575-0.97155v-0.40005h16.088zm-0.74295-7.3724h-14.602v6.6294h3.9719v13.287h6.658v-13.287h3.9719z" color="#000000" color-rendering="auto" dominant-baseline="auto" image-rendering="auto" solid-color="#000000" stop-color="#000000" style="font-feature-settings:normal;font-variant-alternates:normal;font-variant-caps:normal;font-variant-east-asian:normal;font-variant-ligatures:normal;font-variant-numeric:normal;font-variant-position:normal;font-variation-settings:normal;inline-size:0;isolation:auto;mix-blend-mode:normal;shape-margin:0;shape-padding:0;text-decoration-color:#000000;text-decoration-line:none;text-decoration-style:solid;text-indent:0;text-orientation:mixed;text-transform:none;white-space:normal"/>
    <path d="m-531.28-42.094v1.166l-0.28711 0.9707v8.9648h3.9727v13.287h9.5391l0.3418-1.1992h0.33398v-12.088h3.2949l0.34375-1.1992h0.33398v-9.9023zm2.5274 2.5293h12.816v4.8438h-3.9726v13.287h-4.8711v-13.287h-3.9726zm-1.0274 6.6289h3.2148v0.1582h-3.2148zm11.658 0h2.7363l-0.0449 0.1582h-2.6914zm-7.6875 13.287h6.4512l-0.0449 0.1582h-6.4062z" color="#000000" color-rendering="auto" dominant-baseline="auto" image-rendering="auto" solid-color="#000000" stop-color="#000000" style="font-feature-settings:normal;font-variant-alternates:normal;font-variant-caps:normal;font-variant-east-asian:normal;font-variant-ligatures:normal;font-variant-numeric:normal;font-variant-position:normal;font-variation-settings:normal;inline-size:0;isolation:auto;mix-blend-mode:normal;shape-margin:0;shape-padding:0;text-decoration-color:#000000;text-decoration-line:none;text-decoration-style:solid;text-indent:0;text-orientation:mixed;text-transform:none;white-space:normal"/>
   </g>
  </g>
 </g>
</svg>
